2.681200000000000045e+02
3.143799999999999955e+02
3.551600000000000250e+02
3.751200000000000045e+02
3.842400000000000091e+02
4.026000000000000227e+02
4.056800000000000068e+02
4.289399999999999977e+02
4.378000000000000114e+02
4.312799999999999727e+02
4.483399999999999750e+02
4.511399999999999864e+02
4.603199999999999932e+02
4.778999999999999773e+02
4.750600000000000023e+02
4.757599999999999909e+02
4.784800000000000182e+02
4.830199999999999818e+02
4.856000000000000227e+02
4.959200000000000159e+02
4.954399999999999977e+02
5.014800000000000182e+02
5.008199999999999932e+02
5.076999999999999886e+02
5.107599999999999909e+02
5.164400000000000546e+02
5.191799999999999500e+02
5.179800000000000182e+02
5.306200000000000045e+02
5.306000000000000227e+02
5.310800000000000409e+02
5.347000000000000455e+02
5.389400000000000546e+02
5.379800000000000182e+02
5.460199999999999818e+02
5.472999999999999545e+02
5.428400000000000318e+02
5.486599999999999682e+02
5.482799999999999727e+02
5.575199999999999818e+02
5.567000000000000455e+02
5.528400000000000318e+02
5.682000000000000455e+02
5.669400000000000546e+02
5.591799999999999500e+02
5.681799999999999500e+02
5.673799999999999955e+02
5.703999999999999773e+02
5.756200000000000045e+02
5.765599999999999454e+02
5.808999999999999773e+02
5.812200000000000273e+02
5.802400000000000091e+02
5.856200000000000045e+02
5.826200000000000045e+02
5.835199999999999818e+02
5.901399999999999864e+02
5.890000000000000000e+02
5.936799999999999500e+02
