29.90310385	52.96396192	6.842245769
31.56977051	56.04062859	7.098912436
33.23643718	59.11729526	7.355579103
34.90310385	62.19396192	7.612245769
36.56977051	65.27062859	7.868912436
38.23643718	68.34729526	8.125579103
