73.43809941	131.8065683	15.06963048
101.6380994	179.9865683	23.28963048
129.8380994	228.1665683	31.50963048
158.0380994	276.3465683	39.72963048
186.2380994	324.5265683	47.94963048
214.4380994	372.7065683	56.16963048
