95.99809941	170.3505683	21.64563048
101.6380994	179.9865683	23.28963048
107.2780994	189.6225683	24.93363048
112.9180994	199.2585683	26.57763048
118.5580994	208.8945683	28.22163048
124.1980994	218.5305683	29.86563048
