67.79809941	122.1705683	13.42563048
95.99809941	170.3505683	21.64563048
124.1980994	218.5305683	29.86563048
152.3980994	266.7105683	38.08563048
180.5980994	314.8905683	46.30563048
208.7980994	363.0705683	54.52563048
