18.85567487	31.97384687	5.737502872
19.87567487	33.82184687	5.929502872
20.89567487	35.66984687	6.121502872
21.91567487	37.51784687	6.313502872
22.93567487	39.36584687	6.505502872
23.95567487	41.21384687	6.697502872
