14.08715487	23.18850503	4.985804718
24.88715487	38.30850503	11.46580472
35.68715487	53.42850503	17.94580472
46.48715487	68.54850503	24.42580472
57.28715487	83.66850503	30.90580472
68.08715487	98.78850503	37.38580472
