6.14894359	6.14894359	6.14894359
8.14894359	8.14894359	8.14894359
10.14894359	10.14894359	10.14894359
12.14894359	12.14894359	12.14894359
14.14894359	14.14894359	14.14894359
16.14894359	16.14894359	16.14894359
