97.42044868	179.5648033	15.2760941
73.22044868	131.7848033	14.6560941
99.42044868	179.7648033	19.0760941
125.6204487	227.7448033	23.4960941
151.8204487	275.7248033	27.9160941
178.0204487	323.7048033	32.3360941
