6.771137436	11.36018574	2.182089128
10.4878041	18.12185241	2.853755795
14.20447077	24.88351908	3.525422462
17.92113744	31.64518574	4.197089128
21.6378041	38.40685241	4.868755795
25.35447077	45.16851908	5.540422462
