9.795264615	16.66835969	2.922169538
10.64193128	18.15702636	3.126836205
11.48859795	19.64569303	3.331502872
12.33526462	21.13435969	3.536169538
13.18193128	22.62302636	3.740836205
14.02859795	24.11169303	3.945502872
