6.185177436	10.72516328	1.64519159
10.2518441	18.15182995	2.351858256
14.31851077	25.57849662	3.058524923
18.38517744	33.00516328	3.76519159
22.4518441	40.43182995	4.471858256
26.51851077	47.85849662	5.178524923
